[start]
20180109	1100	20300101	1100	50700	999999	0	0	0	1	0	0	0	0	10000	0	0	0	0	0	0	0	0	0	
20160101	0	20300101	0	50700	999999	0	0	1	1	0	150	0	0	0	0	7500	0	2000	0	500	0	0	0	只有從這個轉蛋才能拿到的限定角色等著你喔！
20170101	0	20300101	0	80200	999999	0	0	2	3	0	30	0	0	0	0	7500	0	2000	0	500	0	0	0		0	30	0	0	0	0	7500	0	2000	0	500	0	0	0		0	30	0	0	0	0	7500	0	2000	0	500	0	0	0	
20170101	0	20300101	0	80200	999999	0	0	3	3	0	75	0	0	0	0	7500	0	2000	0	500	0	0	0		0	75	0	0	0	0	7500	0	2000	0	500	0	0	0		0	75	0	0	0	0	7500	0	2000	0	500	0	0	0	
20200424	1100	20300101	1100	90400	999999	0	0	1	4	-1	0	0	0	0	0	0	0	0	0	0	0	0	0		-1	0	0	0	0	0	0	0	0	0	0	0	0	0		-1	0	0	0	0	0	0	0	0	0	0	0	0	0		504	0	0	0	0	0	0	0	0	0	10000	0	0	0	必出超激稀有角色的白金轉蛋！快來獲得心儀的貓咪吧！
20200601	1100	20200616	0	90500	999999	0	0	0	3	-1	0	0	0	0	0	0	0	0	0	0	0	0	0		-1	0	0	0	0	0	0	0	0	0	0	0	0	0		45	0	0	0	0	0	7400	0	2100	0	500	0	0	0	限時開放！收集小小貓咪的好機會！★開放到2020年6月15日！
20200601	1100	20200615	1100	90500	999999	0	0	1	1	511	150	0	3928	0	0	7000	0	2500	0	500	0	0	0	【期間限定】『消滅都市』合作轉蛋登場！★點圖確認詳細吧!!
20200609	1100	20200612	1100	90500	999999	0	0	1	2	-1	0	0	0	0	0	0	0	0	0	0	0	0	0		427	150	0	3928	0	0	6970	0	2500	0	500	0	30	0	對上黑敵能力大爆發！有強大效果的戰國武將們！★點圖確認詳細吧！！
20200612	1100	20200615	1100	90500	999999	0	0	1	2	-1	0	0	0	0	0	0	0	0	0	0	0	0	0		445	150	0	3928	0	0	6970	0	2500	0	500	1	30	0	貓咪軍團珍藏的超級武器！神秘角色新登場！？★點圖可以看詳細內容喔！
20200612	1100	20200615	1100	90500	999999	0	0	1	1	511	150	0	3928	0	0	7000	0	2500	0	500	1	0	0	【即將結束】『消滅都市』合作轉蛋登場！★11連轉超激確定活動中!
20200615	1100	20200622	1100	90500	999999	0	0	0	2	-1	0	0	0	0	0	0	0	0	0	0	0	0	0		5	0	0	2	500	0	7000	0	2000	0	500	0	0	0	限時開放★高機率獲得各種貓眼石的活動限定特別轉蛋！
20200615	1100	20200617	1100	90500	999999	0	0	1	1	430	150	0	0	0	0	6970	0	2500	0	500	0	30	0	打倒阻礙的敵人！戰鬥力十足又可愛的電腦少女們！★點圖可看詳細內容！
20200616	1100	20200702	0	90500	999999	0	0	0	4	-1	0	0	0	0	0	0	0	0	0	0	0	0	0		-1	0	0	0	0	0	0	0	0	0	0	0	0	0		-1	0	0	0	0	0	0	0	0	0	0	0	0	0		44	0	300	0	0	0	5100	0	3500	0	1400	0	0	0	限時開放★能夠獲得喵力達與XP的特別轉蛋！★7月1日為止！
20200617	1100	20200619	1100	90500	999999	0	0	1	1	487	150	0	0	0	0	6970	0	2500	0	500	0	30	0	狙擊天才沙紀參戰！握有正義與黑暗之力的救世主們！★點圖確認詳細吧！！
20200619	1100	20200622	1100	90500	999999	0	0	1	1	501	150	0	0	0	0	6500	0	2600	0	900	0	0	0	限定角色「影傑漆黑達太貓」也參戰！★超激稀有角色出現率超大幅上升
20200622	1100	20200629	1100	90600	999999	0	0	0	2	-1	0	0	0	0	0	0	0	0	0	0	0	0	0		3	0	300	0	400	0	2000	0	7000	0	600	0	0	0	限時開放★有機會入手貓薄荷的活動限定特別轉蛋！
20200622	1100	20200624	1100	90600	999999	0	0	1	1	424	150	0	0	0	0	6970	0	2500	0	500	0	30	0	豐富多樣性的世界第一即戰力貓咪們！★點圖確認詳細吧!!
20200624	1100	20200626	1100	90600	999999	0	0	1	1	433	150	0	0	0	0	6970	0	2500	0	500	0	30	0	展現壓倒性的存在感，快點入手強力的龍皇吧!★點圖確認詳細吧!!
20200626	1100	20200629	1100	90600	999999	0	0	1	1	497	150	0	0	0	0	6970	0	2500	0	500	0	30	0	冥界神黑帝斯參戰！貓咪世界再加一偉大神！★點圖確認詳細吧!!
[end]
