[start]
20180109	1100	20300101	0	60700	999999	0	0	0	1	0	0	0	0	10000	0	0	0	0	0	0	0	0	0	
20160101	0	20300101	0	50700	999999	0	0	1	1	0	150	0	0	0	0	7500	0	2000	0	500	0	0	0	ここでしか手に入らないキャラクターが必ず出現！しかもレアキャラ以上確定!!
20180101	0	20300101	0	80200	999999	0	0	2	3	33	30	0	0	0	0	7500	0	2000	0	500	0	0	0		23	30	0	0	0	0	7500	0	2000	0	500	0	0	0		0	30	0	0	0	0	7500	0	2000	0	500	0	0	0	
20180101	0	20300101	0	80200	999999	0	0	3	3	33	75	0	0	0	0	7500	0	2000	0	500	0	0	0		23	75	0	0	0	0	7500	0	2000	0	500	0	0	0		0	75	0	0	0	0	7500	0	2000	0	500	0	0	0	
20191202	1100	20191213	1100	90100	999999	0	0	0	2	-1	0	0	0	0	0	0	0	0	0	0	0	0	0		5	0	0	2	500	0	7000	0	2000	0	500	0	0	0	高確率でキャッツアイが手に入るイベント限定特別ガチャ！　12月13日11時まで！
20191209	1100	20191213	1100	90100	999999	0	0	1	1	475	150	0	0	0	0	6970	0	2500	0	500	1	30	0	きんたろう参戦！にゃんこワールド最大級の仰天進化！★詳細はバナーをタップ!!
20191209	1100	20300101	000	90100	999999	0	0	1	4	-1	0	0	0	0	0	0	0	0	0	0	0	0	0		-1	0	0	0	0	0	0	0	0	0	0	0	0	0		-1	0	0	0	0	0	0	0	0	0	0	0	0	0		480	0	0	0	0	0	0	0	0	0	10000	0	0	0	超激レアのキャラクターが必ず１体手に入る「プラチナガチャ」！
20191213	1100	20191226	1100	90100	999999	0	0	0	2	-1	0	0	0	0	0	0	0	0	0	0	0	0	0		3	0	300	0	400	0	2000	0	7000	0	600	0	0	0	高確率でマタタビが手に入るイベント限定特別ガチャ！　12月26日11時まで！
20191216	1100	20200101	2359	90100	999999	0	0	0	4	-1	0	0	0	0	0	0	0	0	0	0	0	0	0		-1	0	0	0	0	0	0	0	0	0	0	0	0	0		-1	0	0	0	0	0	0	0	0	0	0	0	0	0		35	0	300	0	0	0	5100	0	3500	0	1400	0	0	0	【期間限定】ネコビタンとXPが手に入る特別仕様ガチャ！★1月1日まで！
20191213	1100	20191216	1100	90100	999999	0	0	1	1	479	150	0	0	0	0	6500	0	2600	0	900	0	0	0	限定キャラ「影傑ダークダルターニャ」も参戦！★超激レア出現率が今だけ超アップ!!
20191216	1100	20191220	1100	90100	999999	0	0	1	1	468	150	0	0	0	0	6970	0	2500	0	500	0	30	0	7周年記念！感謝の気持ちを込めた特別セレクションガチャ！★詳細はバナーをタップ!!
20191216	1100	20191220	1100	90100	999999	0	0	1	2	-1	0	0	0	0	0	0	0	0	0	0	0	0	0		454	150	0	0	0	0	7000	0	2500	0	500	0	0	0	異世界より召喚された愉快なモンスター美少女達！★詳細はバナーをタップ!!
20191216	1100	20191226	1100	90100	999999	0	0	1	3	-1	0	0	0	0	0	0	0	0	0	0	0	0	0		-1	0	0	0	0	0	0	0	0	0	0	0	0	0		472	150	0	0	0	0	7000	0	2500	0	500	0	0	0	新キャラ追加！クリスマス限定キャラを手に入れよう！★詳細はバナーをタップ!!
20191220	1100	20191222	1100	90100	999999	0	0	1	1	433	150	0	0	0	0	6970	0	2500	0	500	1	30	0	角龍グラディオス参戦！圧倒的な存在感を放つドラゴン達！★詳細はバナーをタップ!!
20191222	1100	20191224	1100	90100	999999	0	0	1	1	439	150	0	0	0	0	6970	0	2500	0	500	1	30	0	正義と闇、２つの力を持つ救世主！シークレット新参戦！？★詳細はバナーをタップ!!
20191224	1100	20191226	1100	90100	999999	0	0	1	1	427	150	0	0	0	0	6970	0	2500	0	500	1	30	0	成田甲斐参戦！黒い敵に強力効果の頼もしい戦国武将達！★詳細はバナーをタップ!!
20191220	1100	20191226	1100	90100	999999	0	0	1	3	-1	0	0	0	0	0	0	0	0	0	0	0	0	0		-1	0	0	0	0	0	0	0	0	0	0	0	0	0		472	150	0	0	0	0	7000	0	2500	0	500	1	0	0	新キャラ追加！クリスマス限定キャラを手に入れよう！★11連で超激レア確定!!
[end]
