[start]
20180109	1100	20300101	0	60700	999999	0	0	0	1	0	0	0	0	10000	0	0	0	0	0	0	0	0	0	
20160101	0	20300101	0	50700	999999	0	0	1	1	0	150	0	0	0	0	7500	0	2000	0	500	0	0	0	ここでしか手に入らないキャラクターが必ず出現！しかもレアキャラ以上確定!!
20180101	0	20300101	0	80200	999999	0	0	2	3	33	30	0	0	0	0	7500	0	2000	0	500	0	0	0		23	30	0	0	0	0	7500	0	2000	0	500	0	0	0		0	30	0	0	0	0	7500	0	2000	0	500	0	0	0	
20180101	0	20300101	0	80200	999999	0	0	3	3	33	75	0	0	0	0	7500	0	2000	0	500	0	0	0		23	75	0	0	0	0	7500	0	2000	0	500	0	0	0		0	75	0	0	0	0	7500	0	2000	0	500	0	0	0	
20200501	1100	20300101	000	90500	999999	0	0	1	4	-1	0	0	0	0	0	0	0	0	0	0	0	0	0		-1	0	0	0	0	0	0	0	0	0	0	0	0	0		-1	0	0	0	0	0	0	0	0	0	0	0	0	0		510	0	0	0	0	0	0	0	0	0	10000	0	0	0	超激レアのキャラクターが必ず１体手に入る「プラチナガチャ」！
20200601	1100	20200615	1100	90600	999999	0	0	1	1	505	150	0	0	0	0	7000	0	2500	0	500	0	0	0	【期間限定】『消滅都市』コラボガチャ登場！★詳細はバナーをタップ!!
20200607	1100	20200609	1100	90600	999999	0	0	1	2	-1	0	0	0	0	0	0	0	0	0	0	0	0	0		433	150	0	0	0	0	6970	0	2500	0	500	0	30	0	圧倒的な存在感を放つ、強力なドラゴン達を手に入れよう！★詳細はバナーをタップ!!
20200609	1100	20200611	1100	90600	999999	0	0	1	2	-1	0	0	0	0	0	0	0	0	0	0	0	0	0		506	150	0	0	0	0	6970	0	2500	0	500	0	30	0	異世界より召喚された愉快な美少女達！シークレット美少女参戦！★詳細はバナーをタップ!!
20200611	1100	20200625	2359	90600	999999	0	0	0	3	-1	0	0	0	0	0	0	0	0	0	0	0	0	0		-1	0	0	0	0	0	0	0	0	0	0	0	0	0		47	0	0	0	0	0	7400	0	2100	0	500	0	0	0	【期間限定】ちびネコ達が手に入る特別仕様のイベントガチャ！★6月25日まで！
20200616	1100	20200701	2359	90600	999999	0	0	0	4	-1	0	0	0	0	0	0	0	0	0	0	0	0	0		-1	0	0	0	0	0	0	0	0	0	0	0	0	0		-1	0	0	0	0	0	0	0	0	0	0	0	0	0		44	0	300	0	0	0	5100	0	3500	0	1400	0	0	0	【期間限定】ネコビタンとXPが手に入る特別仕様ガチャ！★7月1日まで！
20200611	1100	20200615	1100	90600	999999	0	0	1	1	505	150	0	3960	0	0	7000	0	2500	0	500	1	0	0	【終了間近】『消滅都市』コラボガチャ登場！★11連で超激レア確定!!
20200611	1100	20200613	1100	90600	999999	0	0	1	2	-1	0	0	0	0	0	0	0	0	0	0	0	0	0		475	150	0	3960	0	0	6970	0	2500	0	500	1	30	0	にゃんこワールド最大級の仰天進化を遂げる古代の勇者達！★詳細はバナーをタップ!!
20200613	1100	20200615	1100	90600	999999	0	0	1	2	-1	0	0	0	0	0	0	0	0	0	0	0	0	0		517	150	0	3960	0	0	6970	0	2500	0	500	1	30	0	新キャラ「オイルガ」参戦！謎だらけのキモかわ生命体！★詳細はバナーをタップ!!
20200613	1100	20300101	000	90600	999999	0	0	1	4	-1	0	0	0	0	0	0	0	0	0	0	0	0	0		-1	0	0	0	0	0	0	0	0	0	0	0	0	0		-1	0	0	0	0	0	0	0	0	0	0	0	0	0		522	0	0	0	0	0	0	0	0	0	10000	0	0	0	超激レアのキャラクターが必ず１体手に入る「プラチナガチャ」！
20200615	1100	20200617	1100	90600	999999	0	0	1	1	497	150	0	3960	0	0	6970	0	2500	0	500	0	30	0	冥界神ハデス参戦！にゃんこワールドの偉大なる神々！★詳細はバナーをタップ!!
20200617	1100	20200619	1100	90600	999999	0	0	1	1	448	150	0	3960	0	0	6970	0	2500	0	500	0	30	0	個性的で愉快な精霊を仲間にしよう！シークレット新参戦！？★詳細はバナーをタップ!!
20200619	1100	20200622	1100	90600	999999	0	0	1	1	521	150	0	3960	0	0	6500	0	2600	0	900	0	0	0	限定キャラ「禍根の魔女キャスリィ」新たに参戦！★超激レア出現率が今だけ超アップ!!
20200622	1100	20200624	1100	90600	999999	0	0	1	1	427	150	0	3960	0	0	6970	0	2500	0	500	0	30	0	黒い敵相手に大暴れ！強力な効果を持つ戦国武将達！★詳細はバナーをタップ!!
20200624	1100	20200625	1100	90600	999999	0	0	1	1	487	150	0	3960	0	0	6970	0	2500	0	500	0	30	0	マッドシューター・サキ参戦！正義と闇の力を持つ救世主達！★詳細はバナーをタップ!!
[end]
